irc_iep_flow.vcd
$date
     May 23, 2025       21:22:51
$end

$version
 SystemC 3.0.1-Accellera --- Mar  3 2025 16:11:28
$end

$timescale
     1 ns
$end

$scope module SystemC $end
$var wire    1  aaaaa  system_clk       $end
$var wire    1  aaaab  reset_n       $end
$var wire    1  aaaac  raw_valid       $end
$var wire    3  aaaaf  credit [2:0]  $end
$scope module raw_tlp $end
$var wire   32  aaaad  data [31:0]  $end
$var wire    2  aaaae  thread_id [1:0]  $end
$upscope $end
$upscope $end
$enddefinitions  $end

$comment
All initial values are dumped below at time 0 sec = 0 timescale units.
$end

$dumpvars
1aaaaa
0aaaab
0aaaac
b0 aaaad
b0 aaaae
b0 aaaaf
$end

#20
1aaaab

#50
0aaaaa

#100
1aaaaa
b111 aaaaf

#150
0aaaaa

#200
1aaaaa
1aaaac
b1 aaaad
b0 aaaaf

#250
0aaaaa

#300
1aaaaa
b10 aaaad
b1 aaaae
b111 aaaaf

#350
0aaaaa

#400
1aaaaa
b11 aaaad
b10 aaaae
b0 aaaaf

#450
0aaaaa

#500
1aaaaa
b100 aaaad
b0 aaaae
b111 aaaaf

#550
0aaaaa

#600
1aaaaa
b101 aaaad
b1 aaaae
b0 aaaaf

#650
0aaaaa

#700
1aaaaa
b110 aaaad
b10 aaaae
b111 aaaaf

#750
0aaaaa

#800
1aaaaa
b111 aaaad
b0 aaaae
b0 aaaaf

#850
0aaaaa

#900
1aaaaa
b1000 aaaad
b1 aaaae
b111 aaaaf

#950
0aaaaa

#1000
1aaaaa
b1001 aaaad
b10 aaaae
b0 aaaaf

#1050
0aaaaa

#1100
1aaaaa
b1010 aaaad
b0 aaaae
b111 aaaaf

#1150
0aaaaa

#1200
1aaaaa
b1011 aaaad
b1 aaaae
b0 aaaaf

#1250
0aaaaa

#1300
1aaaaa
b1100 aaaad
b10 aaaae
b111 aaaaf

#1350
0aaaaa

#1400
1aaaaa
b1101 aaaad
b0 aaaae
b0 aaaaf

#1450
0aaaaa

#1500
1aaaaa
b1110 aaaad
b1 aaaae
b111 aaaaf

#1550
0aaaaa

#1600
1aaaaa
b1111 aaaad
b10 aaaae
b0 aaaaf

#1650
0aaaaa

#1700
1aaaaa
b10000 aaaad
b0 aaaae

#1750
0aaaaa

#1800
1aaaaa
b10001 aaaad
b1 aaaae

#1850
0aaaaa

#1900
1aaaaa
b10010 aaaad
b10 aaaae

#1950
0aaaaa

#2000
1aaaaa
b10011 aaaad
b0 aaaae

#2050
0aaaaa

#2100
1aaaaa
b10100 aaaad
b1 aaaae

#2150
0aaaaa

#2200
1aaaaa
b10101 aaaad
b10 aaaae

#2250
0aaaaa

#2300
1aaaaa
b10110 aaaad
b0 aaaae

#2350
0aaaaa

#2400
1aaaaa
b10111 aaaad
b1 aaaae

#2450
0aaaaa

#2500
1aaaaa
b11000 aaaad
b10 aaaae

#2550
0aaaaa

#2600
1aaaaa
0aaaac

