waves/irc_iep_flow_tansparent_3threads.vcd
$date
     May 22, 2025       18:02:19
$end

$version
 SystemC 3.0.1-Accellera --- Mar  3 2025 16:11:28
$end

$timescale
     1 ns
$end

$scope module SystemC $end
$var wire    1  aaaaa  ep_clk       $end
$var wire    1  aaaab  rc_clk       $end
$var wire    1  aaaac  reset_n       $end
$var wire    1  aaaad  raw_valid       $end
$var wire    3  aaaag  credit [2:0]  $end
$scope module raw_tlp $end
$var wire   32  aaaae  data [31:0]  $end
$var wire    2  aaaaf  thread_id [1:0]  $end
$upscope $end
$upscope $end
$enddefinitions  $end

$comment
All initial values are dumped below at time 0 sec = 0 timescale units.
$end

$dumpvars
1aaaaa
1aaaab
0aaaac
0aaaad
b0 aaaae
b0 aaaaf
b0 aaaag
$end

#20
1aaaac

#50
0aaaaa
0aaaab

#100
1aaaaa
1aaaab
b111 aaaag

#150
0aaaaa
0aaaab

#200
1aaaaa
1aaaab
1aaaad
b0 aaaag

#250
0aaaaa
0aaaab

#300
1aaaaa
1aaaab
b111 aaaag

#350
0aaaaa
0aaaab

#400
1aaaaa
1aaaab
b1 aaaae
b1 aaaaf
b0 aaaag

#450
0aaaaa
0aaaab

#500
1aaaaa
1aaaab
b10 aaaae
b10 aaaaf
b111 aaaag

#550
0aaaaa
0aaaab

#600
1aaaaa
1aaaab
b11 aaaae
b0 aaaaf
b0 aaaag

#650
0aaaaa
0aaaab

#700
1aaaaa
1aaaab
b100 aaaae
b1 aaaaf
b111 aaaag

#750
0aaaaa
0aaaab

#800
1aaaaa
1aaaab
b101 aaaae
b10 aaaaf
b0 aaaag

#850
0aaaaa
0aaaab

#900
1aaaaa
1aaaab
b110 aaaae
b0 aaaaf
b111 aaaag

#950
0aaaaa
0aaaab

#1000
1aaaaa
1aaaab
b111 aaaae
b1 aaaaf
b0 aaaag

#1050
0aaaaa
0aaaab

#1100
1aaaaa
1aaaab
b1000 aaaae
b10 aaaaf
b111 aaaag

#1150
0aaaaa
0aaaab

#1200
1aaaaa
1aaaab
b1001 aaaae
b0 aaaaf
b0 aaaag

#1250
0aaaaa
0aaaab

#1300
1aaaaa
1aaaab
b1010 aaaae
b1 aaaaf
b111 aaaag

#1350
0aaaaa
0aaaab

#1400
1aaaaa
1aaaab
b1011 aaaae
b10 aaaaf
b0 aaaag

#1450
0aaaaa
0aaaab

#1500
1aaaaa
1aaaab
b1100 aaaae
b0 aaaaf
b111 aaaag

#1550
0aaaaa
0aaaab

#1600
1aaaaa
1aaaab
b1101 aaaae
b1 aaaaf
b0 aaaag

#1650
0aaaaa
0aaaab

#1700
1aaaaa
1aaaab
b1110 aaaae
b10 aaaaf
b111 aaaag

#1750
0aaaaa
0aaaab

#1800
1aaaaa
1aaaab
b1111 aaaae
b0 aaaaf
b0 aaaag

#1850
0aaaaa
0aaaab

#1900
1aaaaa
1aaaab
b10000 aaaae
b1 aaaaf
b111 aaaag

#1950
0aaaaa
0aaaab

#2000
1aaaaa
1aaaab
b10001 aaaae
b10 aaaaf
b0 aaaag

#2050
0aaaaa
0aaaab

#2100
1aaaaa
1aaaab
b10010 aaaae
b0 aaaaf
b111 aaaag

#2150
0aaaaa
0aaaab

#2200
1aaaaa
1aaaab
b10011 aaaae
b1 aaaaf
b0 aaaag

#2250
0aaaaa
0aaaab

#2300
1aaaaa
1aaaab
b10100 aaaae
b10 aaaaf
b111 aaaag

#2350
0aaaaa
0aaaab

#2400
1aaaaa
1aaaab
b10101 aaaae
b0 aaaaf
b0 aaaag

#2450
0aaaaa
0aaaab

#2500
1aaaaa
1aaaab
b10110 aaaae
b1 aaaaf
b111 aaaag

#2550
0aaaaa
0aaaab

#2600
1aaaaa
1aaaab
b10111 aaaae
b10 aaaaf
b0 aaaag

#2650
0aaaaa
0aaaab

#2700
1aaaaa
1aaaab
b11000 aaaae
b0 aaaaf
b111 aaaag

#2750
0aaaaa
0aaaab

#2800
1aaaaa
1aaaab
b11001 aaaae
b1 aaaaf
b0 aaaag

#2850
0aaaaa
0aaaab

#2900
1aaaaa
1aaaab
b11010 aaaae
b10 aaaaf
b111 aaaag

#2950
0aaaaa
0aaaab

#3000
1aaaaa
1aaaab
b11011 aaaae
b0 aaaaf
b0 aaaag

#3050
0aaaaa
0aaaab

#3100
1aaaaa
1aaaab
b11100 aaaae
b1 aaaaf
b111 aaaag

#3150
0aaaaa
0aaaab

#3200
1aaaaa
1aaaab
b11101 aaaae
b10 aaaaf
b0 aaaag

#3250
0aaaaa
0aaaab

#3300
1aaaaa
1aaaab
b11110 aaaae
b0 aaaaf
b111 aaaag

#3350
0aaaaa
0aaaab

#3400
1aaaaa
1aaaab
b11111 aaaae
b1 aaaaf
b0 aaaag

#3450
0aaaaa
0aaaab

#3500
1aaaaa
1aaaab
b100000 aaaae
b10 aaaaf
b111 aaaag

#3550
0aaaaa
0aaaab

#3600
1aaaaa
1aaaab
b100001 aaaae
b0 aaaaf
b0 aaaag

#3650
0aaaaa
0aaaab

#3700
1aaaaa
1aaaab
b100010 aaaae
b1 aaaaf
b111 aaaag

#3750
0aaaaa
0aaaab

#3800
1aaaaa
1aaaab
b100011 aaaae
b10 aaaaf
b0 aaaag

#3850
0aaaaa
0aaaab

#3900
1aaaaa
1aaaab
b100100 aaaae
b0 aaaaf
b111 aaaag

#3950
0aaaaa
0aaaab

#4000
1aaaaa
1aaaab
b100101 aaaae
b1 aaaaf
b0 aaaag

#4050
0aaaaa
0aaaab

#4100
1aaaaa
1aaaab
b100110 aaaae
b10 aaaaf
b111 aaaag

#4150
0aaaaa
0aaaab

#4200
1aaaaa
1aaaab
b100111 aaaae
b0 aaaaf
b0 aaaag

#4250
0aaaaa
0aaaab

#4300
1aaaaa
1aaaab
b101000 aaaae
b1 aaaaf
b111 aaaag

#4350
0aaaaa
0aaaab

#4400
1aaaaa
1aaaab
b101001 aaaae
b10 aaaaf
b0 aaaag

#4450
0aaaaa
0aaaab

#4500
1aaaaa
1aaaab
b101010 aaaae
b0 aaaaf
b111 aaaag

#4550
0aaaaa
0aaaab

#4600
1aaaaa
1aaaab
b101011 aaaae
b1 aaaaf
b0 aaaag

#4650
0aaaaa
0aaaab

#4700
1aaaaa
1aaaab
b101100 aaaae
b10 aaaaf
b110 aaaag

#4750
0aaaaa
0aaaab

#4800
1aaaaa
1aaaab
b101101 aaaae
b0 aaaaf
b0 aaaag

#4850
0aaaaa
0aaaab

#4900
1aaaaa
1aaaab
b101110 aaaae
b1 aaaaf
b110 aaaag

#4950
0aaaaa
0aaaab

#5000
1aaaaa
1aaaab
b101111 aaaae
b10 aaaaf
b0 aaaag

#5050
0aaaaa
0aaaab

#5100
1aaaaa
1aaaab
b110000 aaaae
b0 aaaaf

#5150
0aaaaa
0aaaab

#5200
1aaaaa
1aaaab
b110001 aaaae
b1 aaaaf

#5250
0aaaaa
0aaaab

#5300
1aaaaa
1aaaab
b110010 aaaae
b10 aaaaf

#5350
0aaaaa
0aaaab

#5400
1aaaaa
1aaaab
b110011 aaaae
b0 aaaaf

#5450
0aaaaa
0aaaab

#5500
1aaaaa
1aaaab
b110100 aaaae
b1 aaaaf

#5550
0aaaaa
0aaaab

#5600
1aaaaa
1aaaab
b110101 aaaae
b10 aaaaf

#5650
0aaaaa
0aaaab

#5700
1aaaaa
1aaaab
b110110 aaaae
b0 aaaaf

#5750
0aaaaa
0aaaab

#5800
1aaaaa
1aaaab
b110111 aaaae
b1 aaaaf

#5850
0aaaaa
0aaaab

#5900
1aaaaa
1aaaab
b111000 aaaae
b10 aaaaf

#5950
0aaaaa
0aaaab

#6000
1aaaaa
1aaaab
b111001 aaaae
b0 aaaaf

#6050
0aaaaa
0aaaab

#6100
1aaaaa
1aaaab
b111010 aaaae
b1 aaaaf

#6150
0aaaaa
0aaaab

#6200
1aaaaa
1aaaab
b111011 aaaae
b10 aaaaf

#6250
0aaaaa
0aaaab

#6300
1aaaaa
1aaaab
b111100 aaaae
b0 aaaaf

#6350
0aaaaa
0aaaab

#6400
1aaaaa
1aaaab
b111101 aaaae
b1 aaaaf

#6450
0aaaaa
0aaaab

#6500
1aaaaa
1aaaab
b111110 aaaae
b10 aaaaf

#6550
0aaaaa
0aaaab

#6600
1aaaaa
1aaaab
b111111 aaaae
b0 aaaaf

#6650
0aaaaa
0aaaab

#6700
1aaaaa
1aaaab
b1000000 aaaae
b1 aaaaf

#6750
0aaaaa
0aaaab

#6800
1aaaaa
1aaaab
b1000001 aaaae
b10 aaaaf

#6850
0aaaaa
0aaaab

#6900
1aaaaa
1aaaab
b1000010 aaaae
b0 aaaaf

#6950
0aaaaa
0aaaab

#7000
1aaaaa
1aaaab
b1000011 aaaae
b1 aaaaf

#7050
0aaaaa
0aaaab

#7100
1aaaaa
1aaaab
b1000100 aaaae
b10 aaaaf

#7150
0aaaaa
0aaaab

#7200
1aaaaa
1aaaab
b1000101 aaaae
b0 aaaaf

#7250
0aaaaa
0aaaab

#7300
1aaaaa
1aaaab
b1000110 aaaae
b1 aaaaf

#7350
0aaaaa
0aaaab

#7400
1aaaaa
1aaaab
b1000111 aaaae
b10 aaaaf

#7450
0aaaaa
0aaaab

#7500
1aaaaa
1aaaab
b1001000 aaaae
b0 aaaaf

#7550
0aaaaa
0aaaab

#7600
1aaaaa
1aaaab
b1001001 aaaae
b1 aaaaf

#7650
0aaaaa
0aaaab

#7700
1aaaaa
1aaaab
b1001010 aaaae
b10 aaaaf

#7750
0aaaaa
0aaaab

#7800
1aaaaa
1aaaab
b1001011 aaaae
b0 aaaaf

#7850
0aaaaa
0aaaab

#7900
1aaaaa
1aaaab
b1001100 aaaae
b1 aaaaf

#7950
0aaaaa
0aaaab

#8000
1aaaaa
1aaaab
b1001101 aaaae
b10 aaaaf

#8050
0aaaaa
0aaaab

#8100
1aaaaa
1aaaab
b1001110 aaaae
b0 aaaaf

#8150
0aaaaa
0aaaab

#8200
1aaaaa
1aaaab
b1001111 aaaae
b1 aaaaf

#8250
0aaaaa
0aaaab

#8300
1aaaaa
1aaaab
b1010000 aaaae
b10 aaaaf

#8350
0aaaaa
0aaaab

#8400
1aaaaa
1aaaab
b1010001 aaaae
b0 aaaaf

#8450
0aaaaa
0aaaab

#8500
1aaaaa
1aaaab
b1010010 aaaae
b1 aaaaf

#8550
0aaaaa
0aaaab

#8600
1aaaaa
1aaaab
b1010011 aaaae
b10 aaaaf

#8650
0aaaaa
0aaaab

#8700
1aaaaa
1aaaab
b1010100 aaaae
b0 aaaaf

#8750
0aaaaa
0aaaab

#8800
1aaaaa
1aaaab
b1010101 aaaae
b1 aaaaf

#8850
0aaaaa
0aaaab

#8900
1aaaaa
1aaaab
b1010110 aaaae
b10 aaaaf

#8950
0aaaaa
0aaaab

#9000
1aaaaa
1aaaab
b1010111 aaaae
b0 aaaaf

#9050
0aaaaa
0aaaab

#9100
1aaaaa
1aaaab
b1011000 aaaae
b1 aaaaf

#9150
0aaaaa
0aaaab

#9200
1aaaaa
1aaaab
b1011001 aaaae
b10 aaaaf

#9250
0aaaaa
0aaaab

#9300
1aaaaa
1aaaab
b1011010 aaaae
b0 aaaaf

#9350
0aaaaa
0aaaab

#9400
1aaaaa
1aaaab
b1011011 aaaae
b1 aaaaf

#9450
0aaaaa
0aaaab

#9500
1aaaaa
1aaaab
b1011100 aaaae
b10 aaaaf

#9550
0aaaaa
0aaaab

#9600
1aaaaa
1aaaab
b1011101 aaaae
b0 aaaaf

#9650
0aaaaa
0aaaab

#9700
1aaaaa
1aaaab
b1011110 aaaae
b1 aaaaf

#9750
0aaaaa
0aaaab

#9800
1aaaaa
1aaaab
b1011111 aaaae
b10 aaaaf

#9850
0aaaaa
0aaaab

#9900
1aaaaa
1aaaab
b1100000 aaaae
b0 aaaaf

#9950
0aaaaa
0aaaab

#10000
1aaaaa
1aaaab
b1100001 aaaae
b1 aaaaf

#10050
0aaaaa
0aaaab

#10100
1aaaaa
1aaaab
b1100010 aaaae
b10 aaaaf

#10150
0aaaaa
0aaaab

#10200
1aaaaa
1aaaab
b1100011 aaaae
b0 aaaaf

#10250
0aaaaa
0aaaab

#10300
1aaaaa
1aaaab
b1100100 aaaae
b1 aaaaf

#10350
0aaaaa
0aaaab

#10400
1aaaaa
1aaaab
b1100101 aaaae
b10 aaaaf

#10450
0aaaaa
0aaaab

#10500
1aaaaa
1aaaab
b1100110 aaaae
b0 aaaaf

#10550
0aaaaa
0aaaab

#10600
1aaaaa
1aaaab
b1100111 aaaae
b1 aaaaf

#10650
0aaaaa
0aaaab

#10700
1aaaaa
1aaaab
b1101000 aaaae
b10 aaaaf

#10750
0aaaaa
0aaaab

#10800
1aaaaa
1aaaab
b1101001 aaaae
b0 aaaaf

#10850
0aaaaa
0aaaab

#10900
1aaaaa
1aaaab
b1101010 aaaae
b1 aaaaf

#10950
0aaaaa
0aaaab

#11000
1aaaaa
1aaaab
b1101011 aaaae
b10 aaaaf

#11050
0aaaaa
0aaaab

#11100
1aaaaa
1aaaab
b1101100 aaaae
b0 aaaaf

#11150
0aaaaa
0aaaab

#11200
1aaaaa
1aaaab
b1101101 aaaae
b1 aaaaf

#11250
0aaaaa
0aaaab

#11300
1aaaaa
1aaaab
b1101110 aaaae
b10 aaaaf

#11350
0aaaaa
0aaaab

#11400
1aaaaa
1aaaab
b1101111 aaaae
b0 aaaaf

#11450
0aaaaa
0aaaab

#11500
1aaaaa
1aaaab
b1110000 aaaae
b1 aaaaf

#11550
0aaaaa
0aaaab

#11600
1aaaaa
1aaaab
b1110001 aaaae
b10 aaaaf

#11650
0aaaaa
0aaaab

#11700
1aaaaa
1aaaab
b1110010 aaaae
b0 aaaaf

#11750
0aaaaa
0aaaab

#11800
1aaaaa
1aaaab
b1110011 aaaae
b1 aaaaf

#11850
0aaaaa
0aaaab

#11900
1aaaaa
1aaaab
b1110100 aaaae
b10 aaaaf

#11950
0aaaaa
0aaaab

#12000
1aaaaa
1aaaab
b1110101 aaaae
b0 aaaaf

#12050
0aaaaa
0aaaab

#12100
1aaaaa
1aaaab
b1110110 aaaae
b1 aaaaf

#12150
0aaaaa
0aaaab

#12200
1aaaaa
1aaaab
b1110111 aaaae
b10 aaaaf

#12250
0aaaaa
0aaaab

#12300
1aaaaa
1aaaab
b1111000 aaaae
b0 aaaaf

#12350
0aaaaa
0aaaab

#12400
1aaaaa
1aaaab
b1111001 aaaae
b1 aaaaf

#12450
0aaaaa
0aaaab

#12500
1aaaaa
1aaaab
b1111010 aaaae
b10 aaaaf

#12550
0aaaaa
0aaaab

#12600
1aaaaa
1aaaab
b1111011 aaaae
b0 aaaaf

#12650
0aaaaa
0aaaab

#12700
1aaaaa
1aaaab
b1111100 aaaae
b1 aaaaf

#12750
0aaaaa
0aaaab

#12800
1aaaaa
1aaaab
b1111101 aaaae
b10 aaaaf

#12850
0aaaaa
0aaaab

#12900
1aaaaa
1aaaab
b1111110 aaaae
b0 aaaaf

#12950
0aaaaa
0aaaab

#13000
1aaaaa
1aaaab
b1111111 aaaae
b1 aaaaf

#13050
0aaaaa
0aaaab

#13100
1aaaaa
1aaaab
b10000000 aaaae
b10 aaaaf

#13150
0aaaaa
0aaaab

#13200
1aaaaa
1aaaab
b10000001 aaaae
b0 aaaaf

#13250
0aaaaa
0aaaab

#13300
1aaaaa
1aaaab
b10000010 aaaae
b1 aaaaf

#13350
0aaaaa
0aaaab

#13400
1aaaaa
1aaaab
b10000011 aaaae
b10 aaaaf

#13450
0aaaaa
0aaaab

#13500
1aaaaa
1aaaab
b10000100 aaaae
b0 aaaaf

#13550
0aaaaa
0aaaab

#13600
1aaaaa
1aaaab
b10000101 aaaae
b1 aaaaf

#13650
0aaaaa
0aaaab

#13700
1aaaaa
1aaaab
b10000110 aaaae
b10 aaaaf

#13750
0aaaaa
0aaaab

#13800
1aaaaa
1aaaab
b10000111 aaaae
b0 aaaaf

#13850
0aaaaa
0aaaab

#13900
1aaaaa
1aaaab
b10001000 aaaae
b1 aaaaf

#13950
0aaaaa
0aaaab

#14000
1aaaaa
1aaaab
b10001001 aaaae
b10 aaaaf

#14050
0aaaaa
0aaaab

#14100
1aaaaa
1aaaab
b10001010 aaaae
b1 aaaaf

#14150
0aaaaa
0aaaab

#14200
1aaaaa
1aaaab
b10001011 aaaae
b10 aaaaf

#14250
0aaaaa
0aaaab

#14300
1aaaaa
1aaaab
b10001100 aaaae
b1 aaaaf

#14350
0aaaaa
0aaaab

#14400
1aaaaa
1aaaab
b10001101 aaaae
b10 aaaaf

#14450
0aaaaa
0aaaab

#14500
1aaaaa
1aaaab
b10001110 aaaae
b1 aaaaf

#14550
0aaaaa
0aaaab

#14600
1aaaaa
1aaaab
b10001111 aaaae
b10 aaaaf

#14650
0aaaaa
0aaaab

#14700
1aaaaa
1aaaab
b10010000 aaaae
b1 aaaaf

#14750
0aaaaa
0aaaab

#14800
1aaaaa
1aaaab
b10010001 aaaae
b10 aaaaf

#14850
0aaaaa
0aaaab

#14900
1aaaaa
1aaaab
0aaaad

